Problem set 4
…
population

# A tibble: 104 × 4
   state_name    year population state
   <chr>        <int>      <dbl> <chr>
 1 Oklahoma      2020    3962031 OK   
 2 Oklahoma      2021    3986639 OK   
 3 Nebraska      2020    1961455 NE   
 4 Nebraska      2021    1963692 NE   
 5 Hawaii        2020    1451911 HI   
 6 Hawaii        2021    1441553 HI   
 7 South Dakota  2020     887099 SD   
 8 South Dakota  2021     895376 SD   
 9 Tennessee     2020    6920119 TN   
10 Tennessee     2021    6975218 TN   
# ℹ 94 more rows
…
    state_name  = states,
    region      = as.integer(region),
    region_name = region_name
  ) |>
  filter(state_name %in% c(state.name, "District of Columbia", "Puerto Rico")) |>
  mutate(
    region_name = if_else(
      region_name == "New York and New Jersey, Puerto Rico, Virgin Islands",
      "NY and other",
      region_name
    )
  )
regions

# A tibble: 52 × 3
   state_name    region region_name 
   <chr>          <int> <chr>       
 1 Connecticut        1 New England 
 2 Maine              1 New England 
 3 Massachusetts      1 New England 
 4 New Hampshire      1 New England 
 5 Rhode Island       1 New England 
 6 Vermont            1 New England 
 7 New Jersey         2 NY and other
 8 New York           2 NY and other
 9 Puerto Rico        2 NY and other
10 Delaware           3 Mid-Atlantic
# ℹ 42 more rows

Add a region and region name columns to the population data frame.

population <- left_join(population, regions, by = "state_name")
population

# A tibble: 104 × 6
   state_name    year population state region region_name    
   <chr>        <int>      <dbl> <chr>  <int> <chr>          
 1 Oklahoma      2020    3962031 OK         6 South Central  
 2 Oklahoma      2021    3986639 OK         6 South Central  
 3 Nebraska      2020    1961455 NE         7 Central Plains 
 4 Nebraska      2021    1963692 NE         7 Central Plains 
 5 Hawaii        2020    1451911 HI         9 Pacific        
 6 Hawaii        2021    1441553 HI         9 Pacific        
 7 South Dakota  2020     887099 SD         8 Mountain States
 8 South Dakota  2021     895376 SD         8 Mountain States
 9 Tennessee     2020    6920119 TN         4 Southeast      
10 Tennessee     2021    6975218 TN         4 Southeast      
# ℹ 94 more rows
…
cases <- as_tibble(cases_raw) |>
  mutate(
    state_name = state,
    date = as_date(ymd_hms(end_date, quiet = TRUE)),
    cases = parse_number(new_cases)
  ) |>
  select(state_name, date, cases) |>
  filter(!is.na(date) & !is.na(cases))|>
  arrange(state_name, date) 

cases

# A tibble: 10,380 × 3
   state_name date       cases
   <chr>      <date>     <dbl>
 1 AK         2020-01-22     0
 2 AK         2020-01-29     0
 3 AK         2020-02-05     0
 4 AK         2020-02-12     0
 5 AK         2020-02-19     0
 6 AK         2020-02-26     0
 7 AK         2020-03-04     0
 8 AK         2020-03-11     0
 9 AK         2020-03-18    11
10 AK         2020-03-25    52
# ℹ 10,370 more rows
…
deaths

# A tibble: 212 × 3
   state   date       deaths
   <chr>   <date>      <dbl>
 1 Alabama 2020-12-31   6706
 2 Alabama 2021-12-31   9719
 3 Alabama 2022-12-31   4226
 4 Alabama 2023-09-23    869
 5 Alaska  2020-12-31    254
 6 Alaska  2021-12-31    839
 7 Alaska  2022-12-31    330
 8 Alaska  2023-09-23     69
 9 Arizona 2020-12-31   9321
10 Arizona 2021-12-31  14060
# ℹ 202 more rows
…
